…
    ## New names:
    ## * NA -> ...1
    ## * NA -> ...2

``` r
states
```

    ## # A tibble: 50 x 2
    ##    state       abbreviation
    ##    <chr>       <chr>       
    ##  1 Alabama     AL          
    ##  2 Alaska      AK          
    ##  3 Arizona     AZ          
    ##  4 Arkansas    AR          
    ##  5 California  CA          
    ##  6 Colorado    CO          
    ##  7 Connecticut CT          
    ##  8 Delaware    DE          
    ##  9 Florida     FL          
    ## 10 Georgia     GA          
    ## # ... with 40 more rows
…
    ## New names:
    ## * `` -> ...1
    ## * `` -> ...2
    ## * `` -> ...3
    ## * `` -> ...4

``` r
rxNO
```

    ## # A tibble: 241 x 4
    ##    rxSeq ndc           gennme                       prodnme    
    ##    <dbl> <chr>         <chr>                        <chr>      
    ##  1  1979 '54092039101' Amphetamine Salt Combination ADDERALL XR
    ##  2  6965 '57844011001' Amphetamine Salt Combination ADDERALL   
    ##  3  7222 '54092038301' Amphetamine Salt Combination ADDERALL XR
    ##  4  7239 '54092038501' Amphetamine Salt Combination ADDERALL XR
    ##  5  8339 '57844013001' Amphetamine Salt Combination ADDERALL   
    ##  6  9157 '54092038901' Amphetamine Salt Combination ADDERALL XR
    ##  7 10126 '54092038701' Amphetamine Salt Combination ADDERALL XR
    ##  8 19525 '54092038101' Amphetamine Salt Combination ADDERALL XR
    ##  9 21377 '57844012001' Amphetamine Salt Combination ADDERALL   
    ## 10 25738 '57844010501' Amphetamine Salt Combination ADDERALL   
    ## # ... with 231 more rows
…
summary(rxNO$rxSeq)
```

    ##    Min. 1st Qu.  Median    Mean 3rd Qu.    Max.    NA's 
    ##     320    4864   11856   32095   51543  127245       1

``` r
## Check for duplicates.

rxNO %>%
  janitor::get_dupes(rxSeq)
```

    ## # A tibble: 36 x 5
    ##    rxSeq dupe_count ndc          gennme                   prodnme               
    ##    <dbl>      <int> <chr>        <chr>                    <chr>                 
    ##  1  1349          2 '0040689590~ Dextroamphetamine Sulfa~ DEXTROAMPHETAMINE SUL~
    ##  2  1349          2 '0040689590~ Dextroamphetamine Sulfa~ DEXTROAMPHETAMINE SUL~
    ##  3  1624          2 '1310700360~ Dextroamphetamine Sulfa~ DEXTROAMPHETAMINE SUL~
    ##  4  1624          2 '1310700360~ Dextroamphetamine Sulfa~ DEXTROAMPHETAMINE SUL~
    ##  5  1806          2 '4596303040~ Dextroamphetamine Sulfa~ DEXTROAMPHETAMINE SUL~
    ##  6  1806          2 '4596303040~ Dextroamphetamine Sulfa~ DEXTROAMPHETAMINE SUL~
    ##  7  1968          2 '0040689600~ Dextroamphetamine Sulfa~ DEXTROAMPHETAMINE SUL~
    ##  8  1968          2 '0040689600~ Dextroamphetamine Sulfa~ DEXTROAMPHETAMINE SUL~
    ##  9  1979          2 '5409203910~ Amphetamine Salt Combin~ ADDERALL XR           
    ## 10  1979          2 '5409203910~ Amphetamine Salt Combin~ ADDERALL XR           
    ## # ... with 26 more rows
…
``` r
## Checking brand names

rxNOUnduplicated %>%
  distinct(prodnme)
```

    ## # A tibble: 21 x 1
    ##    prodnme                                           
    ##    <chr>                                             
    ##  1 ADDERALL XR                                       
    ##  2 ADDERALL                                          
    ##  3 ADZENYS XR ODT                                    
    ##  4 ADZENYS ER                                        
    ##  5 AMPHETAMINE SALT COMBO                            
    ##  6 MIXED AMPHETAMINE SALTS                           
    ##  7 DEXTROAMPHETAMINE SULFATE                         
    ##  8 DEXTROAMPH SACC-AMPH ASP-DEXTROAM SULF-AMPHET SULF
    ##  9 MYDAYIS                                           
    ## 10 MIXED AMPHETAMINE SALT                            
    ## # ... with 11 more rows
…
